{
  "IRRELEVANT": {
    "description": "Irrelevant NPs",
    "pattern": "^gamma_",
    "display": false,
    "format": "{NAME}"
  },
  "CUSTOMMAP": {
    "description": "NPs with custom mapping",
    "map": {
      "my_unique_np_name": "ATLAS_unique_np_name"
    }
  },
  "UniqueggH": {
    "description": "Unique uncertainties",
    "pattern": [
        "mu_Z5",
        "mu_Z3",
        "mu_W4",
        "alpha_MC_SYST_gammajets",
        "mu_W2",
        "mu_W3",
        "alpha_MC_SYST_SIGNAL_TUNING",
        "alpha_MC_SYST_Wgamma",
        "mu_W5",
        "alpha_MC_SYST_SIGNAL_ACC",
        "mu_Q",
        "mu_Z4",
        "mu_Z2",
        "alpha_MC_SYST_Zgamma"
    ],
    "replace": {
      "alpha_": ""
    },
    "format": "ATLAS_ggHChan_{NAME}"
  },
  "UniqueZH": {
    "description": "Unique uncertainties",
    "pattern": [
        "^alpha__SR_",
        "^alpha_Smooth$",
        "^alpha_FT_EFF_Light_systematics_smooth$",
        "^alpha_FT_EFF_C_systematics_smooth$",
        "^alpha_FT_EFF_B_systematics_smooth$",
        "^alpha_topCR_syst",
        "^k1$"
    ],
    "exclude": ["FAKE"],
    "replace": {
      "_smooth": "",
      "alpha_": ""
    },
    "format": "ATLAS_ZHChan_{NAME}"
  },
  "UniqueVBF": {
    "description": "Unique uncertainties",
    "pattern": [
        "renofactl",
        "_bin1$",
        "^alpha_VBF_",
        "^alpha_GJetTrig$",
        "^alpha_GJetCore$",
        "^alpha_xeSFTrigWeight$",
        "^kWg1$",
        "^ke$",
        "^alpha_eleANTISFEL_EFF_ID_TOTAL_1NPCOR_PLUS_UNCOR$",
        "^alpha_theor_ggFHgamdark125$"
    ],
    "replace": {
      "alpha_": ""
    },
    "format": "ATLAS_VBFChan_{NAME}"
  },
  "Fake": {
    "description": "Fake related uncertainties",
    "pattern": [
        "FAKE",
        "Fake"
    ],
    "replace": {
      "FAKE": "Fake",
      "alpha_": "",
      "_smooth": ""
    },
    "format": "ATLAS_{NAME}"
  },
  "PDF": {
    "description": "PDF uncertainties",
    "pattern": "PDF4LHC_NLO_30",
    "replace": {
      "alpha_ATLAS_": ""
    },
    "format": "ATLAS_{NAME}"
  },
  "ELECTRON": {
    "description": "Electron Uncertainties",
    "pattern": [
      "_EL_",
      "_SysEL_"
    ],
    "source": {
      "TRIGGER": {
        "description": "Electron Trigger",
        "names": [
          "ATLAS_EL_EFF_Trigger_TOTAL_1NPCOR_PLUS_UNCOR"
        ]
      },
      "RECONSTRUCTION": {
        "description": "Electron Reconstruction",
        "names": [
          "ATLAS_EL_EFF_Reco_TOTAL_1NPCOR_PLUS_UNCOR"
        ]
      },
      "IDENTIFICATION": {
        "description": "Electron Identification",
        "names": [
          "ATLAS_EL_EFF_ID_TOTAL_1NPCOR_PLUS_UNCOR",
          "ATLAS_EL_EFF_ChargeIDSel_TOTAL_1NPCOR_PLUS_UNCOR"
        ]
      },
      "ISOLATION": {
        "description": "Electron Isolation",
        "names": [
          "ATLAS_EL_EFF_Iso_TOTAL_1NPCOR_PLUS_UNCOR"
        ]
      }
    }
  },
  "MUON": {
    "description": "Muon Uncertainties",
    "pattern": [
      "_MUON_",
      "_SysMUON_"
    ],
    "cutoff": 0.3,
    "source": {
      "TRIGGER": {
        "description": "Muon Trigger",
        "names": [
          "ATLAS_MUON_EFF_TrigStatUncertainty",
          "ATLAS_MUON_EFF_TrigSystUncertainty"
        ]
      },
      "RECONSTRUCTION": {
        "description": "Muon Reconstruction",
        "names": [
          "ATLAS_MUON_EFF_RECO_STAT",
          "ATLAS_MUON_EFF_RECO_SYS",
          "ATLAS_MUON_EFF_RECO_STAT_LOWPT",
          "ATLAS_MUON_EFF_RECO_SYS_LOWPT"
        ]
      },
      "ISOLATION": {
        "description": "Muon Isolation",
        "names": [
          "ATLAS_MUON_EFF_ISO_STAT",
          "ATLAS_MUON_EFF_BADMUON_SYS",
          "ATLAS_MUON_EFF_ISO_SYS"
        ]
      },
      "TTVA": {
        "description": "Muon TTVA",
        "names": [
          "ATLAS_MUON_EFF_TTVA_STAT",
          "ATLAS_MUON_EFF_TTVA_SYS"
        ]
      },
      "MOMENTUM_CALIBRATION": {
        "description": "Muon Momentum Calibration",
        "names": [
          "ATLAS_MUON_ID",
          "ATLAS_MUON_MS",
          "ATLAS_MUON_SCALE",
          "ATLAS_MUON_SAGITTA_RHO",
          "ATLAS_MUON_SAGITTA_RESBIAS"
        ]
      }
    }
  },
  "TAU": {
    "description": "Tau Uncertainties",
    "pattern": [
      "_TAUS_",
      "_SysTAUS_"
    ],
    "source": {
      "TRIGGER": {
        "description": "Tau Trigger",
        "names": [
          "ATLAS_TAUS_TRUEHADTAU_EFF_TRIGGER_STATDATA161718",
          "ATLAS_TAUS_TRUEHADTAU_EFF_TRIGGER_STATDATA1718",
          "ATLAS_TAUS_TRUEHADTAU_EFF_TRIGGER_STATDATA2016",
          "ATLAS_TAUS_TRUEHADTAU_EFF_TRIGGER_STATDATA2018",
          "ATLAS_TAUS_TRUEHADTAU_EFF_TRIGGER_STATDATA2018AFTTS1",
          "ATLAS_TAUS_TRUEHADTAU_EFF_TRIGGER_STATMC161718",
          "ATLAS_TAUS_TRUEHADTAU_EFF_TRIGGER_STATMC1718",
          "ATLAS_TAUS_TRUEHADTAU_EFF_TRIGGER_STATMC2016",
          "ATLAS_TAUS_TRUEHADTAU_EFF_TRIGGER_STATMC2018",
          "ATLAS_TAUS_TRUEHADTAU_EFF_TRIGGER_STATMC2018AFTTS1",
          "ATLAS_TAUS_TRUEHADTAU_EFF_TRIGGER_SYST161718",
          "ATLAS_TAUS_TRUEHADTAU_EFF_TRIGGER_SYST1718",
          "ATLAS_TAUS_TRUEHADTAU_EFF_TRIGGER_SYST2016",
          "ATLAS_TAUS_TRUEHADTAU_EFF_TRIGGER_SYST2018",
          "ATLAS_TAUS_TRUEHADTAU_EFF_TRIGGER_SYST2018AFTTS1",
          "ATLAS_TAUS_TRUEHADTAU_EFF_TRIGGER_SYSTMU161718",
          "ATLAS_TAUS_TRUEHADTAU_EFF_TRIGGER_SYSTMU1718",
          "ATLAS_TAUS_TRUEHADTAU_EFF_TRIGGER_SYSTMU2016",
          "ATLAS_TAUS_TRUEHADTAU_EFF_TRIGGER_SYSTMU2018",
          "ATLAS_TAUS_TRUEHADTAU_EFF_TRIGGER_SYSTMU2018AFTTS1"
        ]
      },
      "RECONSTRUCTION": {
        "description": "Tau Reconstruction",
        "names": [
          "ATLAS_TAUS_TRUEHADTAU_EFF_RECO_HIGHPT",
          "ATLAS_TAUS_TRUEHADTAU_EFF_RECO_TOTAL"
        ]
      },
      "IDENTIFICATION": {
        "description": "Tau Identification",
        "names": [
          "ATLAS_TAUS_TRUEHADTAU_EFF_RNNID_1PRONGSTATSYSTPT2025",
          "ATLAS_TAUS_TRUEHADTAU_EFF_RNNID_1PRONGSTATSYSTPT2530",
          "ATLAS_TAUS_TRUEHADTAU_EFF_RNNID_1PRONGSTATSYSTPT3040",
          "ATLAS_TAUS_TRUEHADTAU_EFF_RNNID_1PRONGSTATSYSTPTGE40",
          "ATLAS_TAUS_TRUEHADTAU_EFF_RNNID_3PRONGSTATSYSTPT2025",
          "ATLAS_TAUS_TRUEHADTAU_EFF_RNNID_3PRONGSTATSYSTPT2530",
          "ATLAS_TAUS_TRUEHADTAU_EFF_RNNID_3PRONGSTATSYSTPT3040",
          "ATLAS_TAUS_TRUEHADTAU_EFF_RNNID_3PRONGSTATSYSTPTGE40",
          "ATLAS_TAUS_TRUEHADTAU_EFF_RNNID_HIGHPT",
          "ATLAS_TAUS_TRUEHADTAU_EFF_RNNID_SYST"
        ]
      },
      "ENERGY_SCALE": {
        "description": "Tau Energy Scale",
        "names": [
          "ATLAS_TAUS_TRUEHADTAU_SME_TES_INSITUEXP",
          "ATLAS_TAUS_TRUEHADTAU_SME_TES_INSITUFIT",
          "ATLAS_TAUS_TRUEHADTAU_SME_TES_MODEL_CLOSURE",
          "ATLAS_TAUS_TRUEHADTAU_SME_TES_PHYSICSLIST"
        ]
      },
      "ELECTRON_VETO": {
        "description": "Tau Electron-Veto",
        "names": [
          "ATLAS_TAUS_TRUEELECTRON_EFF_ELEBDT_STAT",
          "ATLAS_TAUS_TRUEELECTRON_EFF_ELEBDT_SYST",
          "ATLAS_TAUS_TRUEHADTAU_EFF_ELEOLR_TOTAL"
        ]
      }
    }
  },
  "EGAMMA": {
    "description": "E Gamma Uncertainties",
    "pattern": [
      "_EG_",
      "_SysEG_"
    ],
    "source": {
      "RESOLUTION": {
        "description": "E Gamma Resolution",
        "names": [
          "ATLAS_EG_RESOLUTION_ALL"
        ]
      },
      "SCALE": {
        "description": "E Gamma Scale",
        "names": [
          "ATLAS_EG_SCALE_ALL",
          "ATLAS_EG_SCALE_AF2"
        ]
      }
    }
  },
  "PHOTON": {
    "description": "Photon Uncertainties",
    "pattern": [
      "_PH_",
      "_SysPH"
    ],
    "source": {
      "TRIGGER": {
        "description": "Photon Trigger",
        "names": [
          "ATLAS_PH_EFF_TRIGGER"
        ]
      },
      "IDENTIFICATION": {
        "description": "Photon Identification",
        "names": [
          "ATLAS_PH_EFF_ID_Uncertainty"
        ]
      },
      "ISOLATION": {
        "description": "Photon Isolation",
        "names": [
          "ATLAS_PH_EFF_ISO_Uncertainty"
        ]
      }
    }
  },
  "JET": {
    "description": "Jet Uncertainties",
    "pattern": [
      "_JET_",
      "_SysJET_"
    ],
    "exclude": ["_R10_", "_SF_", "_boosted$"],
    "replace": {
      "_resolved": "",
      "_boosted": ""
    },    
    "source": {
      "ENERGY_SCALE": {
        "description": "Jet Energy Scale",
        "names": [
          "ATLAS_JET_EtaIntercalibration_Modelling",
          "ATLAS_JET_EtaIntercalibration_TotalStat",
          "ATLAS_JET_EtaIntercalibration_NonClosure_highE",
          "ATLAS_JET_EtaIntercalibration_NonClosure_negEta",
          "ATLAS_JET_EtaIntercalibration_NonClosure_posEta",
          "ATLAS_JET_Pileup_OffsetMu",
          "ATLAS_JET_Pileup_OffsetNPV",
          "ATLAS_JET_Pileup_PtTerm",
          "ATLAS_JET_Pileup_RhoTopology",
          "ATLAS_JET_Flavor_Composition",
          "ATLAS_JET_Flavor_Response",
          "ATLAS_JET_PunchThrough_MC16",
          "ATLAS_JET_PunchThrough_AFII",
          "ATLAS_JET_EffectiveNP_1",
          "ATLAS_JET_EffectiveNP_2",
          "ATLAS_JET_EffectiveNP_3",
          "ATLAS_JET_EffectiveNP_4",
          "ATLAS_JET_EffectiveNP_5",
          "ATLAS_JET_EffectiveNP_6",
          "ATLAS_JET_EffectiveNP_7",
          "ATLAS_JET_EffectiveNP_8restTerm",
          "ATLAS_JET_EffectiveNP_Detector1",
          "ATLAS_JET_EffectiveNP_Detector2",
          "ATLAS_JET_EffectiveNP_Mixed1",
          "ATLAS_JET_EffectiveNP_Mixed2",
          "ATLAS_JET_EffectiveNP_Mixed3",
          "ATLAS_JET_EffectiveNP_Modelling1",
          "ATLAS_JET_EffectiveNP_Modelling2",
          "ATLAS_JET_EffectiveNP_Modelling3",
          "ATLAS_JET_EffectiveNP_Modelling4",
          "ATLAS_JET_EffectiveNP_Statistical1",
          "ATLAS_JET_EffectiveNP_Statistical2",
          "ATLAS_JET_EffectiveNP_Statistical3",
          "ATLAS_JET_EffectiveNP_Statistical4",
          "ATLAS_JET_EffectiveNP_Statistical5",
          "ATLAS_JET_EffectiveNP_Statistical6",
          "ATLAS_JET_SingleParticle_HighPt",
          "ATLAS_JET_RelativeNonClosure_MC16",
          "ATLAS_JET_RelativeNonClosure_AFII",
          "ATLAS_JET_BJES_Response",
          "ATLAS_JET_EtaIntercalibration_NonClosure_2018data",
          "ATLAS_JET_CombMass_Baseline",
          "ATLAS_JET_CombMass_Modelling",
          "ATLAS_JET_CombMass_TotalStat",
          "ATLAS_JET_CombMass_Tracking1",
          "ATLAS_JET_CombMass_Tracking2",
          "ATLAS_JET_CombMass_Tracking3",
          "ATLAS_JET_JVT"
        ]
      },
      "ENERGY_RESOLUTION": {
        "description": "Jet Energy Resolution",
        "names": [
          "ATLAS_JET_JER_DataVsMC_MC16",
          "ATLAS_JET_JER_DataVsMC_AFII",
          "ATLAS_JET_JER_EffectiveNP_1",
          "ATLAS_JET_JER_EffectiveNP_2",
          "ATLAS_JET_JER_EffectiveNP_3",
          "ATLAS_JET_JER_EffectiveNP_4",
          "ATLAS_JET_JER_EffectiveNP_5",
          "ATLAS_JET_JER_EffectiveNP_6",
          "ATLAS_JET_JER_EffectiveNP_7",
          "ATLAS_JET_JER_EffectiveNP_8",
          "ATLAS_JET_JER_EffectiveNP_9",
          "ATLAS_JET_JER_EffectiveNP_10",
          "ATLAS_JET_JER_EffectiveNP_11",
          "ATLAS_JET_JER_EffectiveNP_7restTerm",
          "ATLAS_JET_JER_EffectiveNP_12restTerm"
        ]
      },
      "VERTEX_TAGGING": {
        "description": "Jet Vertex Tagging",
        "names": [
          "ATLAS_JET_JvtEfficiency"
        ]
      },
      "FORWARD_VERTEX_TAGGING": {
        "description": "Forward Jet Vertex Tagging",
        "names": [
          "ATLAS_JET_fJvtEfficiency"
        ]
      }
    }
  },
  "FLAVOR_TAGGING": {
    "description": "Flavor Tagging Ucertainties",
    "pattern": [
      "_FT_",
      "_SysFT_"
    ],
    "exclude": ["_R10_", "_boosted$"],
    "names": [
      "ATLAS_FT_EFF_Eigen_B_0",
      "ATLAS_FT_EFF_Eigen_B_1",
      "ATLAS_FT_EFF_Eigen_B_2",
      "ATLAS_FT_EFF_Eigen_B_3",
      "ATLAS_FT_EFF_Eigen_B_4",
      "ATLAS_FT_EFF_Eigen_B_5",
      "ATLAS_FT_EFF_Eigen_B_6",
      "ATLAS_FT_EFF_Eigen_B_7",
      "ATLAS_FT_EFF_Eigen_B_8",
      "ATLAS_FT_EFF_Eigen_C_0",
      "ATLAS_FT_EFF_Eigen_C_1",
      "ATLAS_FT_EFF_Eigen_C_2",
      "ATLAS_FT_EFF_Eigen_C_3",
      "ATLAS_FT_EFF_Eigen_Light_0",
      "ATLAS_FT_EFF_Eigen_Light_1",
      "ATLAS_FT_EFF_Eigen_Light_2",
      "ATLAS_FT_EFF_Eigen_Light_3",
      "ATLAS_FT_EFF_Eigen_Light_4",
      "ATLAS_FT_EFF_Eigen_Light_5",
      "ATLAS_FT_EFF_Eigen_Light_6",
      "ATLAS_FT_EFF_extrapolation",
      "ATLAS_FT_EFF_extrapolation_from_charm"
    ]
  },
  "FAT_JET_FLAVOR_TAGGING": {
    "description": "Fat Jet Flavor Tagging Ucertainties",
    "pattern": [
      "_FT_(.*)_boosted$",
      "_SysFT_(.*)_boosted$",
      "_R10_FT_",
      "_R10_(.*)_SysFT_"
    ],
    "replace": {
      "_boosted": "",
      "_R10": "",
      "alpha_": ""
    },
    "names": [
      "ATLAS_Boosted_FT_EFF_Eigen_B_0",
      "ATLAS_Boosted_FT_EFF_Eigen_B_1",
      "ATLAS_Boosted_FT_EFF_Eigen_B_2",
      "ATLAS_Boosted_FT_EFF_Eigen_B_3",
      "ATLAS_Boosted_FT_EFF_Eigen_B_4",
      "ATLAS_Boosted_FT_EFF_Eigen_B_5",
      "ATLAS_Boosted_FT_EFF_Eigen_B_6",
      "ATLAS_Boosted_FT_EFF_Eigen_B_7",
      "ATLAS_Boosted_FT_EFF_Eigen_B_8",
      "ATLAS_Boosted_FT_EFF_Eigen_C_0",
      "ATLAS_Boosted_FT_EFF_Eigen_C_1",
      "ATLAS_Boosted_FT_EFF_Eigen_C_2",
      "ATLAS_Boosted_FT_EFF_Eigen_C_3",
      "ATLAS_Boosted_FT_EFF_Eigen_Light_0",
      "ATLAS_Boosted_FT_EFF_Eigen_Light_1",
      "ATLAS_Boosted_FT_EFF_Eigen_Light_2",
      "ATLAS_Boosted_FT_EFF_Eigen_Light_3",
      "ATLAS_Boosted_FT_EFF_Eigen_Light_4",
      "ATLAS_Boosted_FT_EFF_Eigen_Light_5",
      "ATLAS_Boosted_FT_EFF_Eigen_Light_6",
      "ATLAS_Boosted_FT_EFF_extrapolation",
      "ATLAS_Boosted_FT_EFF_extrapolation_from_charm"
    ]
  },
  "MET": {
    "description": "MET Uncertainties",
    "pattern": [
      "_MET_",
      "_SysMET_"
    ],
    "names": [
      "ATLAS_MET_SoftTrk_ResoPara",
      "ATLAS_MET_SoftTrk_ResoPerp",
      "ATLAS_MET_SoftTrk_Scale",
      "ATLAS_MET_SoftTrk_ScaleDown",
      "ATLAS_MET_SoftTrk_ScaleUp"
    ]
  },
  "LUMINOSITY": {
    "description": "Luminosity Uncertainties",
    "pattern": [
      "(?i)_LUMI_",
      "(?i)^LUMI$",
      "(?i)_LUMI$"
    ],
    "cutoff": 0.2,
    "names": [
      "ATLAS_LUMI_Run2"
    ]
  },
  "PILEUP": {
    "description": "Pileup Uncertainties",
    "cutoff": 0.2,
    "pattern": [
      "_PRW_",
      "_PRW$",
      "_SysPRW_"
    ],
    "names": [
      "ATLAS_PU_PRW_DATASF"
    ]
  }
}
